{
    "data": [
        {
            "avatar": "https://reqres.in/img/faces/7-image.jpg",
            "email": "michael.lawson@reqres.in",
            "first_name": "Michael",
            "id": 7,
            "last_name": "Lawson"
        },
        {
            "avatar": "https://reqres.in/img/faces/8-image.jpg",
            "email": "lindsay.ferguson@reqres.in",
            "first_name": "Lindsay",
            "id": 8,
            "last_name": "Ferguson"
        },
        {
            "avatar": "https://reqres.in/img/faces/9-image.jpg",
            "email": "tobias.funke@reqres.in",
            "first_name": "Tobias",
            "id": 9,
            "last_name": "Funke"
        }
    ],
    "page": 2,
    "per_page": 6,
    "total": 12,
    "total_pages": 2
}